^C:\USERS\EDUARDO RODRIGUEZ\DOCUMENTS\VISUAL STUDIO 2010\PROJECTS\AIP\TESTWCF\FORM1.RESX|C:\USERS\EDUARDO RODRIGUEZ\DOCUMENTS\VISUAL STUDIO 2010\PROJECTS\AIP\TESTWCF\PROPERTIES\RESOURCES.RESX
C:\USERS\EDUARDO RODRIGUEZ\DOCUMENTS\VISUAL STUDIO 2010\PROJECTS\AIP\TESTWCF\OBJ\X86\DEBUG\TESTWCF.FORM1.RESOURCES
C:\USERS\EDUARDO RODRIGUEZ\DOCUMENTS\VISUAL STUDIO 2010\PROJECTS\AIP\TESTWCF\OBJ\X86\DEBUG\TESTWCF.PROPERTIES.RESOURCES.RESOURCES
